{
    "index": {
        "download_fdroid": "تنزيل أف-درويد",
        "introduction": "أف-درويد فهرس لتطبيقات البرمجيات الحرة ومفتوحة المصدر لمنصة أندرويد. يسمح لك التطبيق إكتشاف وتثبيت وتتبع التحديثات على جهازك.",
        "gpg_signature": "توقيع بي جي بي",
        "screenshot": "لقطة شاشة لـ أف-درويد على نظام الأندرويد",
        "title": "ما هو أف-درويد ؟"
    },
    "navigation": {
        "about": "عن المشروع",
        "documentation": "الوثائق",
        "forum": "المنتدى",
        "browse": "تَصَفّح",
        "contribute": "المساهمة",
        "repomaker": "مُطوِّر المستودعات",
        "tutorials": "الدروس",
        "news": "الأخبار",
        "issues": "المشاكل"
    },
    "package": {
        "website": "الموقع",
        "license": "الرخصة",
        "new_in_version": "جديد في إصداره الـ  [latest_version]",
        "liberapay": "ليبر باي",
        "flattr": "فلاتر",
        "build_metadata": "البيانات الوصفية للبِناء",
        "changelog": "سجل التغييرات",
        "author": "المالك",
        "version_info": "<b>الإصدار [package_version]</b> أضيف في ([package_version_code])-[package_added_date]",
        "signed_by_developer": "هو مُطوَّر و مُوَقَّع من قبل المُطوِّر الأصلي.",
        "gpg_signature": "توقيع بي جي بي",
        "signed_by_fdroid": "مصمّمٌ و مُوقّع عليه من طرف أف-درويد و مضمون ليتوافق مع <a href=\"[source_code_url]\">حزمة tarball المصدرية</a>.",
        "source_code": "الشيفرة المصدرية",
        "technical_info": "بيانات تقنية",
        "packages": "الحزم",
        "download": "نزِّل [file_extension]",
        "minimum_android_version": "يتطلب هذا الإصدار نظام أندرويد [android_version] أو أحدث.",
        "donate": "تبرع",
        "suggest_downloading_via_fdroid": "على الرغم من تَوفّرحُزم APK أدناه لاعطيائك الخيار إلّا أنه يجب أن تكون على علم بأن عملية التثبيت بهذه الطريقة لن تمكِّنك من تلقي إخطارات التحديث وأنها وسيلة أقل أمنا للتنزيل. ننصحك بتثبيت تطبيق أف-درويد واستخدامه.",
        "issue_tracker": "مقتفي المشاكل",
        "permissions": "التصريحات"
    },
    "sidebars": {
        "latest_packages": {
            "heading": "أحدث التطبيقات"
        },
        "news": {
            "heading": "الأخبار"
        },
        "search": {
            "noscript": "تتطلب هذه الصفحة تفعيل جافا سكريبت في المتصفح الخاص بك",
            "heading": "إبحث عن تطبيقات"
        },
        "donate": {
            "bank_transfer_name": "الإسم",
            "bitcoin_alt": "تبرع بالبيتكوين",
            "powered_by_donations": "إنَّ أف-درويد مدعوم بتبرعاتكم !",
            "via_bank_transfer": "تحويل بنكي",
            "litecoin_alt": "التبرع عبر اللايت كُوين",
            "flattr_alt": "تبرع عبر فلاتر",
            "paypal_alt": "تبرع عبر بايبال",
            "liberapay_alt": "تبرع عبر Liberapay",
            "heading": "تبرع"
        },
        "last_updated": {
            "heading": "آخر تحديث"
        }
    }
}
