{
    "index": {
        "download_fdroid": "Sækja F-Droid", 
        "gpg_signature": "PGP-undirritun", 
        "introduction": "F-Droid er uppsetjanleg yfirlitsskrá með FOSS (frjálsum og opnum hugbúnaði) forritum fyrir Android-stýrikerfin. F-Droid forritið einfaldar mjög skoðun og uppsetningu á forritum, auk þess að halda utan um uppfærslur þeirra á tækinu þínu.", 
        "screenshot": "Skjámynd af F-Droid Android-forritinu", 
        "title": "Hvað er F-Droid?"
    }, 
    "navigation": {
        "about": "Um F-Droid", 
        "browse": "Flakka", 
        "contribute": "Taka þátt", 
        "documentation": "Hjálparskjöl", 
        "forum": "Vefspjall", 
        "issues": "Vandamál", 
        "news": "Fréttir", 
        "repomaker": "Repomaker", 
        "tutorials": "Leiðbeiningar"
    }, 
    "package": {
        "author": "Höfundur", 
        "build_metadata": "Byggja lýsigögn", 
        "changelog": "Breytingaskrá", 
        "donate": "Styrkja", 
        "download": "Sækja [file_extension]", 
        "flattr": "Flattr", 
        "gpg_signature": "PGP-undirritun", 
        "issue_tracker": "Verkskrásetjari (tracker)", 
        "liberapay": "Liberapay", 
        "license": "Notkunarleyfi", 
        "minimum_android_version": "Þessi útgáfa krefst Android [android_version]  eða nýrri.", 
        "new_in_version": "Nýtt í útgáfu [latest_version]", 
        "packages": "Pakkar", 
        "permissions": "Heimildir", 
        "signed_by_developer": "Byggt og undirritað af upprunalegum forritara.", 
        "signed_by_fdroid": "Það er byggt og undirritað af F-Droid, og ábyrgst er að það samsvari <a href=\"[source_code_url]\">þessum grunnkóðapakka</a> (source tarball).", 
        "source_code": "Upprunakóði", 
        "suggest_downloading_via_fdroid": "Þrátt fyrir að niðurhalaðir APK-pakkar séu til taks hér fyrir neðan og gefi þér kost á að velja slíka uppsetningu, þá þarftu að vera meðvitaður um að með slíkri uppsetningu muntu ekki fá tilkynningar um uppfærslur og að þetta er ekki eins örugg leið við að sækja forrit. Við mælum eindregið með því að þú náir í F-Droid forritið og notir það.", 
        "technical_info": "Tæknilegar upplýsingar", 
        "version_info": "<b>Útgáfa [package_version]</b> ([package_version_code]) - Bætt við þann [package_added_date]", 
        "website": "Vefsvæði"
    }, 
    "sidebars": {
        "donate": {
            "bank_transfer_name": "Nafn", 
            "bitcoin_alt": "Styrkja með Bitcoin", 
            "flattr_alt": "Styrkja í gegnum Flattr", 
            "heading": "Styrkja", 
            "liberapay_alt": "Styrkja í gegnum Liberapay", 
            "litecoin_alt": "Styrkja með Litecoin", 
            "paypal_alt": "Styrkja í gegnum PayPal", 
            "powered_by_donations": "F-Droid er drifið áfram af styrkjum!", 
            "via_bank_transfer": "Bankamillifærsla"
        }, 
        "last_updated": {
            "heading": "Síðast uppfært"
        }, 
        "latest_packages": {
            "heading": "Nýjustu forrit"
        }, 
        "news": {
            "heading": "Fréttir"
        }, 
        "search": {
            "heading": "Finna forrit", 
            "noscript": "Krefst þess að JavaScript sé virkjað"
        }
    }
}