{
    "index": {
        "download_fdroid": "بارگیری اف‌دروید", 
        "gpg_signature": "امضای PGP", 
        "introduction": "اف‌دروید یک فهرست قابل نصب از برنامه‌های کاربردی [نرم‌افزار آزاد](https://www.gnu.org/philosophy/free-sw.fa.html) برای اندروید است. اف‌دروید، مرور، نصب و ارتقا را روی دستگاهتان آسان می‌کند.", 
        "screenshot": "نماگرفت کارهٔ اندروید اف‌دروید", 
        "title": "اف‌دروید چیست؟"
    }, 
    "navigation": {
        "about": "درباره", 
        "browse": "مرور", 
        "contribute": "مشارکت", 
        "documentation": "مستندات", 
        "forum": "انجمن", 
        "issues": "مشکلات", 
        "news": "اخبار", 
        "repomaker": "مخزن‌ساز", 
        "tutorials": "آموزش‌ها"
    }, 
    "package": {
        "author": "نگارنده", 
        "build_metadata": "فرادادهٔ ساخت", 
        "changelog": "گزارش تغییرات", 
        "donate": "اعانه", 
        "download": "بارگیری [file_extension]", 
        "flattr": "فلتر", 
        "gpg_signature": "امضای PGP", 
        "issue_tracker": "ردیاب مشکل", 
        "liberapay": "لیبراپی", 
        "license": "پروانه", 
        "minimum_android_version": "این نگارش، به اندروید [android_version] یا جدیدتر نیاز دارد.", 
        "new_in_version": "جدید در نگارش [latest_version]", 
        "packages": "بسته‌ها", 
        "permissions": "اجازه‌ها", 
        "signed_by_developer": "توسّط توسعه‌دهندهٔ اصلی ساخته و امضا شده است.", 
        "signed_by_fdroid": "توسّط اف‌دروید ساخته و امضا و برای مطابقت با <a href=\"[source_code_url]\">این کد مبدأ</a> تضمین شده است.", 
        "source_code": "کد مبدأ", 
        "suggest_downloading_via_fdroid": "با وجود موجود بودن بارگیری‌های APK برای دادن حق گزینش، باید آگاه باشید که با نصب به این روش، آگاهی‌های به‌روز رسانی را دریافت نکرده و راهی ناامن برای بارگیری است.پیشنهاد می‌شود کارهٔ اف‌دروید را نصب و از آن استفاده کنید.", 
        "technical_info": "اطّلاعات فنی", 
        "version_info": "‫<b>نگارش [package_version]</b> ([package_version_code]) - افزوده در [package_added_date]", 
        "website": "پایگاه وب"
    }, 
    "sidebars": {
        "donate": {
            "bank_transfer_name": "نام", 
            "bitcoin_alt": "اعانه با بیت‌کوین", 
            "flattr_alt": "اعانه با فلتر", 
            "heading": "اعانه", 
            "liberapay_alt": "اعانه با لیبراپی", 
            "litecoin_alt": "اعانه با لایت‌کوین", 
            "paypal_alt": "اعانه با پی‌پل", 
            "powered_by_donations": "اف‌دروید از کمک های شما نیرو می‌گیرد!", 
            "via_bank_transfer": "حوالهٔ بانکی"
        }, 
        "last_updated": {
            "heading": "آخرین به‌روز رسانی"
        }, 
        "latest_packages": {
            "heading": "جدیدترین کاره‌ها"
        }, 
        "news": {
            "heading": "اخبار"
        }, 
        "search": {
            "heading": "یافتن کاره‌ها", 
            "noscript": "برای فعّال‌سازی نیاز به جاوا اسکریپت است"
        }
    }
}